<svg xmlns="http://www.w3.org/2000/svg" xmlns:xlink="http://www.w3.org/1999/xlink" width="170" height="224" viewBox="0 0 170 224">
  <defs>
    <clipPath id="clip-Artboard_1">
      <rect width="170" height="224"/>
    </clipPath>
  </defs>
  <g id="Artboard_1" data-name="Artboard – 1" clip-path="url(#clip-Artboard_1)">
    <g id="Group_135" data-name="Group 135" transform="translate(-23 -244)">
      <rect id="Rectangle_15" data-name="Rectangle 15" width="6.216" height="12.714" transform="translate(108.415 428.461)" fill="#b5b1af"/>
      <rect id="Rectangle_16" data-name="Rectangle 16" width="6.219" height="12.71" transform="translate(108.411 428.464)" fill="#b5b1af"/>
      <rect id="Rectangle_17" data-name="Rectangle 17" width="3.155" height="12.254" transform="translate(111.475 428.92)" fill="#b5b1af" opacity="0.5"/>
      <g id="Group_70" data-name="Group 70" transform="translate(22.685 326.913)">
        <g id="Group_68" data-name="Group 68">
          <path id="Path_215" data-name="Path 215" d="M36.351,327.168c-1.919,16.608,27.7,29.13,35.945,13.039l-1.415,13.28c-17.264,8.953-40.394-4.7-40.655-23.549Z" transform="translate(-21.649 -315.487)" fill="#b5b1af"/>
          <path id="Path_216" data-name="Path 216" d="M72.289,340.2l-1.411,13.279c-.447.235-.9.446-1.342.636-16.614,7.41-37.818-5.077-39.241-22.642-.034-.5-.057-1.027-.068-1.541l6.126-2.767C34.426,343.776,64.051,356.3,72.289,340.2Z" transform="translate(-21.649 -315.486)" fill="#b5b1af"/>
          <path id="Path_217" data-name="Path 217" d="M70.56,343.884l-1.033,9.731c-16.614,7.41-37.818-5.077-39.241-22.642l4.337-.123C32.7,347.455,62.322,359.976,70.56,343.884Z" transform="translate(-21.641 -314.981)" fill="#b5b1af" opacity="0.5"/>
          <path id="Path_218" data-name="Path 218" d="M38.351,316.9s-2.459.5-4.9,1.242c1.43,2.616,3.079,9.113-.827,10.143-5.733,1.51-5.882-5.116-5.266-8.7-1.26.581-3.9,1.706-3.9,1.706-2.614,7.007,1.656,13.519,9.265,12.334C48.256,331.2,38.351,316.9,38.351,316.9Z" transform="translate(-22.685 -316.896)" fill="#38ce8b"/>
          <path id="Path_219" data-name="Path 219" d="M32.719,333.625a9.051,9.051,0,0,1-6.358-1.127c-3.327-2.087-4.646-6.54-2.9-11.216,0,0,.414-.166.987-.411.872-.381,2.146-.927,2.914-1.284-.436,2.511-.494,6.516,1.491,8.178a4.02,4.02,0,0,0,3.776.524c3.9-1.037,2.248-7.531.826-10.144,1.228-.368,2.433-.68,3.351-.9s1.549-.346,1.549-.346S48.253,331.2,32.719,333.625ZM36.8,317.243c-.918.223-2.122.535-3.351.9,1.423,2.612,3.075,9.106-.826,10.144a4.02,4.02,0,0,1-3.776-.524c-3.774-.043-4.555-3.826-4.4-6.894-.573.245-.987.411-.987.411-1.743,4.677-.424,9.129,2.9,11.216a11.959,11.959,0,0,0,4.326.212C45.466,330.913,38.57,319.776,36.8,317.243Z" transform="translate(-22.684 -316.897)" fill="#38ce8b" opacity="0.5"/>
          <path id="Path_220" data-name="Path 220" d="M53.5,346.654A7.8,7.8,0,1,1,45.71,339.2,7.63,7.63,0,0,1,53.5,346.654Z" transform="translate(-20.593 -313.835)" fill="#303639"/>
          <path id="Path_221" data-name="Path 221" d="M53.5,346.294a7.8,7.8,0,0,1-15.57.345,7.853,7.853,0,0,0,6.242,3.013,7.628,7.628,0,0,0,7.792-7.454,1.917,1.917,0,0,0-.024-.368A7.136,7.136,0,0,1,53.5,346.294Z" transform="translate(-20.591 -313.474)" fill="#303639" opacity="0.5"/>
          <path id="Path_222" data-name="Path 222" d="M37.349,333.486a10.93,10.93,0,0,1-5.737,2.743m1.53,4.026a10,10,0,0,0,6.236-3.012m15.545,17.767c1.863-1.253,3.224-5.573,2.865-8.152m3.3,8.083a10.182,10.182,0,0,0,1.075-8.292" transform="translate(-21.459 -314.619)" fill="none" stroke="#4e5265" stroke-linecap="round" stroke-miterlimit="10" stroke-width="1"/>
        </g>
        <g id="Group_69" data-name="Group 69" transform="translate(123.223 24.984)">
          <path id="Path_223" data-name="Path 223" d="M163.6,372.189c5.293-15.922-21.18-33.768-32.566-19.541l4.114-12.754c18.767-5.534,38.641,12.2,35.028,30.729Z" transform="translate(-131.031 -338.865)" fill="#b5b1af"/>
          <path id="Path_224" data-name="Path 224" d="M170.179,370.627l-2.467.58-4.119.982c5.3-15.925-21.18-33.768-32.562-19.54l3.006-9.3,1.113-3.457C153.909,334.358,173.782,352.09,170.179,370.627Z" transform="translate(-131.031 -338.865)" fill="#b5b1af"/>
          <path id="Path_225" data-name="Path 225" d="M167.713,370.735l-4.119.982c5.3-15.925-21.18-33.768-32.562-19.54l3.006-9.3C151.122,339.143,168.5,354.052,167.713,370.735Z" transform="translate(-131.031 -338.393)" fill="#b5b1af" opacity="0.5"/>
          <path id="Path_226" data-name="Path 226" d="M156.9,379.927s2.512-.024,5.061-.3c-.865-2.834-1.148-9.516,2.893-9.791,5.931-.4,4.716,6.123,3.374,9.527,1.356-.333,4.178-.942,4.178-.942,4-6.376,1.151-13.567-6.552-13.833C150.125,364.046,156.9,379.927,156.9,379.927Z" transform="translate(-127.678 -335.334)" fill="#38ce8b"/>
          <path id="Path_227" data-name="Path 227" d="M162.617,370.4c.058,0,.115-.013.16-.013-2.375,1.687-2.064,6.841-1.331,9.241-.619.067-1.239.124-1.824.168C158.854,376.782,158.751,370.665,162.617,370.4Zm2.719-5.8a13.937,13.937,0,0,0-6.081.926,16.46,16.46,0,0,1,4.36-.368c7.629.268,10.487,7.3,6.678,13.616l1.606-.348C175.893,372.05,173.047,364.863,165.336,364.6Z" transform="translate(-127.164 -335.334)" fill="#38ce8b" opacity="0.5"/>
          <path id="Path_228" data-name="Path 228" d="M147.8,347.657a7.79,7.79,0,0,1,9.172-5.845,7.474,7.474,0,0,1,6.108,8.774,7.788,7.788,0,0,1-9.171,5.846A7.475,7.475,0,0,1,147.8,347.657Z" transform="translate(-128.749 -338.48)" fill="#303639"/>
          <path id="Path_229" data-name="Path 229" d="M163.086,350.211a7.8,7.8,0,0,1-9.179,5.848,7.54,7.54,0,0,1-6.23-6.885,7.913,7.913,0,0,0,13.975-2.868,6.6,6.6,0,0,0,.126-1.886A7.167,7.167,0,0,1,163.086,350.211Z" transform="translate(-128.745 -338.102)" fill="#303639" opacity="0.5"/>
          <path id="Path_230" data-name="Path 230" d="M162.59,364.909c1.4-1.621,5.063-2.607,6.559-1.575m-1.434-5.3c-2.148-.271-5.45.281-6.55,2.512m-11-19.9c-2.2,1.256-5.02,4.463-5.116,7.067m-1.019-8.748c-2.806,1.124-3.714,5.912-3.331,8.423" transform="translate(-129.714 -338.851)" fill="none" stroke="#4e5265" stroke-linecap="round" stroke-miterlimit="10" stroke-width="1"/>
        </g>
      </g>
      <g id="Group_71" data-name="Group 71" transform="translate(92.383 409.355)">
        <path id="Path_231" data-name="Path 231" d="M115.223,389.386c3.88,0,7.025,2.828,7.025,6.318v8.848c0,3.487-3.512,5.37-7.025,6.315s-19.051,1.186-24.231,0-7.024-2.828-7.024-6.315V395.7c0-3.489,3.144-6.318,7.024-6.318Z" transform="translate(-83.968 -389.386)" fill="#303639"/>
      </g>
      <g id="Group_72" data-name="Group 72" transform="translate(94.081 409.447)" opacity="0.5">
        <path id="Path_232" data-name="Path 232" d="M122.039,395.694v8.851c0,3.48-3.511,5.367-7.022,6.314s-19.046,1.184-24.233,0a12.5,12.5,0,0,1-5.324-2.187c.458.124.941.247,1.457.37,5.175,1.194,20.722.95,24.233,0s7.023-2.824,7.023-6.317v-8.849a5.942,5.942,0,0,0-2-4.408A6.546,6.546,0,0,1,122.039,395.694Z" transform="translate(-85.461 -389.467)" fill="#303639"/>
      </g>
      <path id="Path_233" data-name="Path 233" d="M150.217,386.978c-.677,9.764-2.639,17.889-6.47,20.768-7.3,5.534-71.115,8.134-76.312-.759-1.767-3.037-3.43-10.67-4.487-19.821-2.03-17.775-1.766-41.322,4.487-48.13a1.1,1.1,0,0,1,.1-.1c2-2.107,6.138-3.793,11.519-5.054,13.723-3.224,35.443-3.66,50.084-1.117,7.263,1.262,12.781,3.261,14.72,6.006a3.1,3.1,0,0,1,.184.266C148.325,345.989,151.446,369.211,150.217,386.978Z" transform="translate(5.373 11.969)" fill="#38ce8b"/>
      <path id="Path_234" data-name="Path 234" d="M103.226,243.953c-21.8,0-20.079,14.957-20.079,27.991h40.158C123.305,258.91,125.026,243.953,103.226,243.953Z" transform="translate(8.298)" fill="#303639"/>
      <path id="Path_235" data-name="Path 235" d="M123.3,271.921H83.141v-1.116h34.421c0-10.769,1.17-22.854-10.717-26.715C124.824,245.7,123.3,259.657,123.3,271.921Z" transform="translate(8.301 0.019)" fill="#303639" opacity="0.5"/>
      <g id="Group_77" data-name="Group 77" transform="translate(50.205 286.986)">
        <g id="Group_73" data-name="Group 73">
          <path id="Path_236" data-name="Path 236" d="M75.721,316.6a8,8,0,0,1-8.176,7.824H56.1c-4.515,0-6.95-3.91-8.176-7.824s-1.533-21.218,0-26.986,3.661-7.825,8.176-7.825H67.545a8.006,8.006,0,0,1,8.176,7.825Z" transform="translate(-46.882 -281.791)" fill="#303639"/>
        </g>
        <g id="Group_74" data-name="Group 74" transform="translate(0.528 2.396)" opacity="0.5">
          <path id="Path_237" data-name="Path 237" d="M75.652,289.323v26.993a8,8,0,0,1-8.169,7.822H56.031c-4.508,0-6.952-3.916-8.18-7.822a17,17,0,0,1-.5-2.734,7.425,7.425,0,0,0,6.391,3.862h11.45a8,8,0,0,0,8.169-7.824V283.9A7.6,7.6,0,0,1,75.652,289.323Z" transform="translate(-47.347 -283.898)" fill="#303639"/>
        </g>
        <g id="Group_75" data-name="Group 75" transform="translate(93.798)">
          <path id="Path_238" data-name="Path 238" d="M129.356,316.6a8,8,0,0,0,8.176,7.824H148.98c4.515,0,6.95-3.91,8.176-7.824s1.533-21.218,0-26.986-3.661-7.825-8.176-7.825H137.532a8.006,8.006,0,0,0-8.176,7.825Z" transform="translate(-129.356 -281.791)" fill="#303639"/>
        </g>
        <g id="Group_76" data-name="Group 76" transform="translate(93.798 3.078)" opacity="0.5">
          <path id="Path_239" data-name="Path 239" d="M157.157,316.234c-1.228,3.907-3.661,7.822-8.182,7.822H137.537a8.007,8.007,0,0,1-8.181-7.822v-1.272a8.275,8.275,0,0,0,5.887,2.4h11.438c4.521,0,6.953-3.918,8.182-7.824,1.112-3.538,1.468-18.033.39-25.041a17,17,0,0,1,1.9,4.744C158.694,295.009,158.385,312.318,157.157,316.234Z" transform="translate(-129.356 -284.497)" fill="#303639"/>
        </g>
      </g>
      <path id="Path_240" data-name="Path 240" d="M152.916,326.769c-.035.222-.058.446-.092.669-1.033,7.275-3.029,13.023-6.3,15.367-7.779,5.58-75.715,8.211-81.257-.771-1.5-2.443-2.925-7.822-4-14.6-.035-.223-.069-.447-.1-.669-2.822-18.213-3.131-45.811,4.108-53.3,2.513-2.59,8.41-4.575,15.948-5.915,1.206-.212,2.457-.413,3.741-.593a175.167,175.167,0,0,1,39.894-.635c1.24.122,2.455.267,3.626.434,9.2,1.273,16.293,3.493,18.37,6.708C151.825,281.159,155.336,308.511,152.916,326.769Z" transform="translate(5.028 2.956)" fill="#38ce8b"/>
      <path id="Path_241" data-name="Path 241" d="M143.554,338.838c-.056-.091-.123-.179-.185-.265h0c0-.008-.012-.015-.018-.023a5.316,5.316,0,0,0-.358-.448c-.016-.017-.03-.036-.047-.053q-.206-.229-.444-.447l-.033-.031a9.427,9.427,0,0,0-1.188-.911c-.076-.051-.161-.1-.24-.15-.13-.078-.256-.159-.394-.238-2.745-1.592-6.948-2.827-12-3.705a259.178,259.178,0,0,1-50.084,1.117c-5.381,1.261-9.523,2.947-11.519,5.054,11.987,5.643,69.861.473,71.986,3.993s5.486,23.637,4.566,37.119c-.665,9.854-2.627,18.043-6.46,20.956-6.379,4.878-55.83,7.5-71.745,2.1a18.683,18.683,0,0,0,1.549,3.885c5.2,8.893,69.014,6.293,76.312.759,3.832-2.88,5.793-11,6.47-20.768C150.955,369.012,147.834,345.791,143.554,338.838Z" transform="translate(5.864 12.167)" fill="#38ce8b" opacity="0.5"/>
      <path id="Path_242" data-name="Path 242" d="M152.692,319.37c-.035.222-.058.446-.092.669-1.033,7.275-3.029,13.023-6.3,15.367-7.779,5.58-75.715,8.211-81.257-.771-1.5-2.443-2.925-7.822-4-14.6-.035-.223-.069-.447-.1-.669Z" transform="translate(5.252 10.355)" fill="#303639"/>
      <path id="Path_243" data-name="Path 243" d="M131.706,349.614c-5.535-5.8-50.88-4.791-54.834,0s-4.217,25.472,0,30.517,51.144,5.549,54.834,0S137.243,355.414,131.706,349.614Z" transform="translate(7.02 13.961)" fill="#f4e5d2"/>
      <path id="Path_244" data-name="Path 244" d="M131.706,349.614c-5.535-5.8-50.88-4.791-54.834,0s-4.217,25.472,0,30.517,51.144,5.549,54.834,0S137.243,355.414,131.706,349.614Zm-4.637,27.918c-3.061,4.6-41.988,4.183-45.487,0s-3.28-21.343,0-25.316,40.894-4.812,45.487,0S130.131,372.927,127.069,377.531Z" transform="translate(7.02 13.961)" fill="#303639"/>
      <path id="Path_245" data-name="Path 245" d="M132.967,350.35c-5.536-5.8-50.88-4.792-54.833,0s-4.218,25.473,0,30.517,51.142,5.549,54.833,0S138.5,356.151,132.967,350.35Zm-4.637,27.916c-3.062,4.6-41.988,4.184-45.487,0s-3.281-21.342,0-25.317,40.894-4.812,45.487,0S131.393,373.663,128.33,378.266Z" transform="translate(7.193 14.063)" fill="#303639" opacity="0.5"/>
      <path id="Path_246" data-name="Path 246" d="M131.706,349.614c-5.535-5.8-50.88-4.791-54.834,0s-4.217,25.472,0,30.517,51.144,5.549,54.834,0S137.243,355.414,131.706,349.614Zm-4.637,27.918c-3.061,4.6-41.988,4.183-45.487,0s-3.28-21.343,0-25.316,40.894-4.812,45.487,0S130.131,372.927,127.069,377.531Z" transform="translate(7.02 13.961)" fill="#303639"/>
      <path id="Path_247" data-name="Path 247" d="M152.494,325.939c-.035.222-.058.446-.092.669-1.033,7.275-3.029,13.023-6.3,15.367-7.779,5.58-75.715,8.211-81.257-.771a26.174,26.174,0,0,1-2.467-6.885c11.1,7.41,72.526,4.765,79.9-.524,3.27-2.344,5.267-8.09,6.3-15.366.035-.224.058-.446.092-.67,1.916-14.474.115-34.662-3.212-46.234a5.857,5.857,0,0,1,.963,1.117C151.4,280.33,154.914,307.681,152.494,325.939Z" transform="translate(5.45 3.786)" fill="#38ce8b" opacity="0.5"/>
      <g id="Group_80" data-name="Group 80" transform="translate(88.129 293.614)">
        <g id="Group_79" data-name="Group 79">
          <path id="Path_248" data-name="Path 248" d="M85.391,287.618a5.024,5.024,0,1,0,5.163,5.021A5.093,5.093,0,0,0,85.391,287.618Z" transform="translate(-80.228 -287.618)" fill="#37323f"/>
          <path id="Path_249" data-name="Path 249" d="M123.595,292.639a5.165,5.165,0,1,1-5.163-5.021A5.095,5.095,0,0,1,123.595,292.639Z" transform="translate(-75.691 -287.618)" fill="#37323f"/>
          <g id="Group_78" data-name="Group 78" transform="translate(14.916 10.044)">
            <path id="Path_250" data-name="Path 250" d="M103.177,305.027c-.275,0-.55-.01-.821-.025-4.289-.258-8.938-2.69-9.013-7.419a1.13,1.13,0,0,1,1.129-1.134,1.173,1.173,0,0,1,1.166,1.1c.052,3.329,3.482,5.022,6.859,5.227,3.523.21,7.549-1.2,8.068-4.806a1.139,1.139,0,0,1,1.294-.951,1.122,1.122,0,0,1,.978,1.259C112.161,302.986,107.507,305.027,103.177,305.027Z" transform="translate(-93.343 -296.449)" fill="#37323f"/>
          </g>
        </g>
        <path id="Path_251" data-name="Path 251" d="M85,294.663a2.127,2.127,0,0,1,0-4.255A2.127,2.127,0,0,1,85,294.663Zm37.863-4.255a2.127,2.127,0,0,0,0,4.255A2.127,2.127,0,0,0,122.864,290.408Z" transform="translate(-79.863 -287.235)" fill="#fff"/>
      </g>
      <g id="Group_81" data-name="Group 81" transform="translate(102.059 434.152)">
        <path id="Path_252" data-name="Path 252" d="M107.538,442.987c-2.1,2.54-9.1,2.919-12.485,0S91.9,419,94.118,414.679c1.966-3.827,11.395-5.1,14.12-.762C111.505,419.122,109.639,440.447,107.538,442.987Z" transform="translate(-92.476 -411.189)" fill="#2e3639"/>
        <path id="Path_253" data-name="Path 253" d="M106.7,442.986c-1.389,1.683-4.922,2.42-8.135,1.873a6.534,6.534,0,0,0,3.89-1.873c2.1-2.534,3.97-23.861.7-29.072a6.118,6.118,0,0,0-4.177-2.534c3.247-.569,6.9.09,8.422,2.534C110.67,419.125,108.8,440.452,106.7,442.986Z" transform="translate(-91.64 -411.189)" fill="#2e3639" opacity="0.5"/>
        <path id="Path_254" data-name="Path 254" d="M93.388,417.242c3.7-.713,13.043-1.882,16.257,1.177M92.661,424.4a46.693,46.693,0,0,0,16.882.4m-16.7,5.532c4.771,2.08,12.939,1.566,17,.088m-16.5,6.384c4.511,1.994,12.167,1.595,15.812.354" transform="translate(-92.451 -410.471)" fill="none" stroke="#4e5265" stroke-linecap="round" stroke-miterlimit="10" stroke-width="1"/>
      </g>
      <path id="Path_255" data-name="Path 255" d="M95.461,415.614c-.769,6.576-1.409,13.1-.764,19.714.207,2.131,3.652,2.151,3.441,0-.644-6.613,0-13.138.765-19.714C99.155,413.471,95.709,413.494,95.461,415.614Z" transform="translate(9.851 23.351)" fill="#2e3639"/>
      <path id="Path_256" data-name="Path 256" d="M92.279,355.091c-8.207,1.857-7.356,9.219-6.447,15.8.292,2.11-3.025,3.021-3.319.889-1.169-8.458-1.477-17.578,8.851-19.914C93.525,351.374,94.441,354.6,92.279,355.091Zm31.034,2.033c-.565-2.086-3.886-1.2-3.319.891a26.406,26.406,0,0,1,.782,10.819c-.7,4.252-7.7,3.737-10.9,3.116-2.168-.419-3.091,2.807-.916,3.228,4.567.884,11.681,1.069,14.436-3.412C125.733,367.958,124.406,361.154,123.313,357.124Z" transform="translate(8.137 14.81)" fill="#f4e5d2"/>
      <path id="Path_257" data-name="Path 257" d="M153.85,343.3c-3.7,0-3.7,5.578,0,5.578S157.549,343.3,153.85,343.3Z" transform="translate(17.629 13.641)" fill="#303639"/>
      <path id="Path_258" data-name="Path 258" d="M65.332,276.325c-2.6,8.94-3.1,18.255-3.2,27.5-.028,2.653.615,10.552.853,12.79.97,9.151,6.217,8.642,7.389,6.242,2.179-4.461.189-10.891-.152-15.638A84.254,84.254,0,0,1,73.077,278.4C74.487,273.544,66.738,271.486,65.332,276.325Z" transform="translate(5.417 4.066)" fill="#38ce8b"/>
      <path id="Path_259" data-name="Path 259" d="M53.653,283.844c-7.046,4.894-5.066,17.582-4,24.725.532,3.551,6.058,2.035,5.532-1.483a63.1,63.1,0,0,1-.611-8.812c-.019-2.377-.354-8,1.97-9.613C59.53,286.591,56.67,281.748,53.653,283.844Z" transform="translate(3.553 5.407)" fill="#303639"/>
      <path id="Path_260" data-name="Path 260" d="M146.229,283.176a2.922,2.922,0,0,0-3.925,1,2.8,2.8,0,0,0,1.03,3.817,6.317,6.317,0,0,1,2.4,5.03c.1,3.591,5.833,3.6,5.737,0A12.126,12.126,0,0,0,146.229,283.176Z" transform="translate(16.371 5.33)" fill="#303639"/>
      <path id="Path_261" data-name="Path 261" d="M70.972,322.742a2.864,2.864,0,0,0-5.059,1.764,3.094,3.094,0,0,0,3.25,3.161,2.855,2.855,0,0,0,2.868-2.79A2.742,2.742,0,0,0,70.972,322.742Z" transform="translate(5.936 10.677)" fill="#303639"/>
      <path id="Path_262" data-name="Path 262" d="M67.173,345.335a73.926,73.926,0,0,0-.573,46.959c1.111,3.418,6.65,1.956,5.532-1.485a68.806,68.806,0,0,1,.574-43.99C73.888,343.4,68.346,341.942,67.173,345.335Z" transform="translate(5.543 13.656)" fill="#38ce8b"/>
      <path id="Path_263" data-name="Path 263" d="M44.9,340.225c-3.7,0-3.7,5.738,0,5.738S48.6,340.225,44.9,340.225Z" transform="translate(2.669 13.219)" fill="#303639"/>
      <path id="Path_264" data-name="Path 264" d="M93.569,246.128c-6.754,3.279-9.385,12.182-8.131,19.134.652,3.6,6.13,2.072,5.484-1.513-.828-4.587,1.152-10.592,5.517-12.711C99.738,249.438,96.854,244.535,93.569,246.128Z" transform="translate(8.575 0.255)" fill="#303639"/>
    </g>
  </g>
</svg>
